name="The Plague"
tags={
	"Gameplay"
	"Events"
	"Disasters"
	"Modifiers"
}
picture="thumbnail.png"
supported_version="1.36.*.*"
path="C:/Users/13146/Documents/Paradox Interactive/Europa Universalis IV/mod/theplague"
remote_file_id="2767540163"
